…
In downstream analysis steps, I uncovered duplicate dates and times that
lack data, specifically from January of 2016. I filter them out here.

## Demonstrate the Problem

``` r
the_data %>% select(datetime) %>% group_by(datetime) %>% summarize(n = n()) %>% filter(n>1) %>% arrange(datetime)
```

    ## `summarise()` ungrouping output (override with `.groups` argument)

    ## # A tibble: 475 x 2
    ##    datetime                n
    ##    <dttm>              <int>
    ##  1 2016-01-01 00:00:00     2
    ##  2 2016-01-01 01:00:00     2
    ##  3 2016-01-01 02:00:00     2
    ##  4 2016-01-01 03:00:00     2
    ##  5 2016-01-01 04:00:00     2
    ##  6 2016-01-01 05:00:00     2
    ##  7 2016-01-01 06:00:00     2
    ##  8 2016-01-01 07:00:00     2
    ##  9 2016-01-01 08:00:00     2
    ## 10 2016-01-01 09:00:00     2
    ## # ... with 465 more rows
…
